{
    "reversedClientId" : "com.googleusercontent.apps.1000605347247-k6hjeb8qh1jf3rihtfj8opdatvsqfebl",
    "apiKey" : "AIzaSyBP77b6wjcZC-7Dyokjv9HGRT3Bm9Mtl3c",
    "isSignInEnabled" : true,
    "isGcmEnabled" : true,
    "googleAppId" : "1:1000605347247:ios:455585b0fa80e376",
    "gcmSenderId" : "1000605347247",
    "bundleId" : "com.giigaa.online-app",
    "adUnitIdForBannerTest" : "ca-app-pub-3940256099942544\/2934735716",
    "isAppInviteEnabled" : true,
    "adUnitIdForInterstitialTest" : "ca-app-pub-3940256099942544\/4411468910",
    "databaseUrl" : "https:\/\/app-online-95786.firebaseio.com",
    "isAnalyticsEnabled" : false,
    "projectId" : "app-online-95786",
    "plistVersion" : "1",
    "storageBucket" : "app-online-95786.appspot.com",
    "isAdsEnabled" : true,
    "clientId" : "1000605347247-k6hjeb8qh1jf3rihtfj8opdatvsqfebl.apps.googleusercontent.com"
}
