{
  "AUTH_ROOT_URL": "https://auth-test.giigaa.com",
  "ONLINE_APP_BACKEND_URL": "https://online-test.giigaa.com/api",
  "CDN_URL": "https://cdn-test.giigaa.com",
  "SENTRY_DSN_URL": "https://263b02d6409a42689888b62cd831ee43@sentry.io/1339458"
}
