{
  "AUTH_ROOT_URL": "https://auth.giigaa.com",
  "ONLINE_APP_BACKEND_URL": "https://giigaa.com/api",
  "CDN_URL": "https://cdn.giigaa.com",
  "SENTRY_DSN_URL": "https://0b460df952704bb3a9d3c38bfae952fd@sentry.io/1353546"
}
