{
  "project_info": {
    "project_number": "350787472421",
    "firebase_url": "https://my-project-1534297171822.firebaseio.com",
    "project_id": "my-project-1534297171822",
    "storage_bucket": "my-project-1534297171822.appspot.com"
  },
  "client": [
    {
      "client_info": {
        "mobilesdk_app_id": "1:350787472421:android:7a34dd89f5e22544",
        "android_client_info": {
          "package_name": "com.giigaa.online_app"
        }
      },
      "oauth_client": [
        {
          "client_id": "350787472421-3p0k1h80ms3iek7ujq7rdhvpb9qb9hno.apps.googleusercontent.com",
          "client_type": 1,
          "android_info": {
            "package_name": "com.giigaa.online_app",
            "certificate_hash": "8125abc15d87a6627e3bdb7aabf130b05643d8a0"
          }
        },
        {
          "client_id": "350787472421-e0sssbmfga3m5e8aiv686sqvqfa2ipdh.apps.googleusercontent.com",
          "client_type": 3
        }
      ],
      "api_key": [
        {
          "current_key": "AIzaSyBNruaM6AEeSoCQhhS1QlRZ2VBsyhkTsv4"
        }
      ],
      "services": {
        "analytics_service": {
          "status": 1
        },
        "appinvite_service": {
          "status": 2,
          "other_platform_oauth_client": [
            {
              "client_id": "350787472421-e0sssbmfga3m5e8aiv686sqvqfa2ipdh.apps.googleusercontent.com",
              "client_type": 3
            },
            {
              "client_id": "350787472421-lsm2q9g6cu3mgjkg5lb9djni07ei3of3.apps.googleusercontent.com",
              "client_type": 2,
              "ios_info": {
                "bundle_id": "com.giigaa.online-app",
                "app_store_id": "1442168038"
              }
            }
          ]
        },
        "ads_service": {
          "status": 2
        }
      }
    }
  ],
  "configuration_version": "1"
}